\relax 
\providecommand\hyper@newdestlabel[2]{}
\providecommand\HyperFirstAtBeginDocument{\AtBeginDocument}
\HyperFirstAtBeginDocument{\ifx\hyper@anchor\@undefined
\global\let\oldcontentsline\contentsline
\gdef\contentsline#1#2#3#4{\oldcontentsline{#1}{#2}{#3}}
\global\let\oldnewlabel\newlabel
\gdef\newlabel#1#2{\newlabelxx{#1}#2}
\gdef\newlabelxx#1#2#3#4#5#6{\oldnewlabel{#1}{{#2}{#3}}}
\AtEndDocument{\ifx\hyper@anchor\@undefined
\let\contentsline\oldcontentsline
\let\newlabel\oldnewlabel
\fi}
\fi}
\global\let\hyper@last\relax 
\gdef\HyperFirstAtBeginDocument#1{#1}
\providecommand\HyField@AuxAddToFields[1]{}
\providecommand\HyField@AuxAddToCoFields[2]{}
\citation{unity}
\citation{mono}
\@writefile{toc}{\contentsline {chapter}{\numberline {1}Wst\IeC {\k e}p}{3}{chapter.1}}
\@writefile{lof}{\addvspace {10\p@ }}
\@writefile{lot}{\addvspace {10\p@ }}
\newlabel{rozdz.wstep}{{1}{3}{Wstęp}{chapter.1}{}}
\@writefile{toc}{\contentsline {section}{\numberline {1.1}Cel, za\IeC {\l }o\IeC {\.z}enia i zakres pracy}{3}{section.1.1}}
\@writefile{toc}{\contentsline {chapter}{\numberline {2}System Lindermayera}{5}{chapter.2}}
\@writefile{lof}{\addvspace {10\p@ }}
\@writefile{lot}{\addvspace {10\p@ }}
\newlabel{rozdz.L-system}{{2}{5}{System Lindermayera}{chapter.2}{}}
\@writefile{toc}{\contentsline {section}{\numberline {2.1}Fraktal}{5}{section.2.1}}
\@writefile{lof}{\contentsline {figure}{\numberline {2.1}{\ignorespaces Fraktal Mandelbrota \relax }}{5}{figure.caption.1}}
\providecommand*\caption@xref[2]{\@setref\relax\@undefined{#1}}
\newlabel{fig:fraktal1}{{2.1}{5}{Fraktal Mandelbrota \relax }{figure.caption.1}{}}
\citation{prusinABOP}
\citation{prusinABOP}
\citation{konw}
\citation{konw}
\citation{prusinABOP}
\citation{prusinABOP}
\citation{slon}
\citation{slon}
\newlabel{konwalia:L}{{2.2a}{6}{Konwalia wygenerowana z L-systemu.\cite {prusinABOP}\relax }{figure.caption.2}{}}
\newlabel{sub@konwalia:L}{{a}{6}{Konwalia wygenerowana z L-systemu.\cite {prusinABOP}\relax }{figure.caption.2}{}}
\newlabel{konwalia:N}{{2.2b}{6}{Zdjęcie konwali.\cite {konw}\relax }{figure.caption.2}{}}
\newlabel{sub@konwalia:N}{{b}{6}{Zdjęcie konwali.\cite {konw}\relax }{figure.caption.2}{}}
\@writefile{lof}{\contentsline {figure}{\numberline {2.2}{\ignorespaces Por\IeC {\'o}wnanie konwali.\relax }}{6}{figure.caption.2}}
\newlabel{fig:test}{{2.2}{6}{Porównanie konwali.\relax }{figure.caption.2}{}}
\newlabel{slon:L}{{2.3a}{6}{Słonecznik wygenerowany z L-systemu.\cite {prusinABOP}\relax }{figure.caption.3}{}}
\newlabel{sub@slon:L}{{a}{6}{Słonecznik wygenerowany z L-systemu.\cite {prusinABOP}\relax }{figure.caption.3}{}}
\newlabel{slon:N}{{2.3b}{6}{Zdjęcie słonecznika.\cite {slon}\relax }{figure.caption.3}{}}
\newlabel{sub@slon:N}{{b}{6}{Zdjęcie słonecznika.\cite {slon}\relax }{figure.caption.3}{}}
\@writefile{lof}{\contentsline {figure}{\numberline {2.3}{\ignorespaces Por\IeC {\'o}wnanie s\IeC {\l }onecznika.\relax }}{6}{figure.caption.3}}
\newlabel{fig:test}{{2.3}{6}{Porównanie słonecznika.\relax }{figure.caption.3}{}}
\@writefile{toc}{\contentsline {section}{\numberline {2.2}System Lindermayera}{7}{section.2.2}}
\@writefile{toc}{\contentsline {subsection}{\numberline {2.2.1}DOL-system}{7}{subsection.2.2.1}}
\@writefile{lof}{\contentsline {figure}{\numberline {2.4}{\ignorespaces Przyk\IeC {\l }ad DOL-system \relax }}{7}{figure.caption.4}}
\newlabel{fig:DOL-System}{{2.4}{7}{Przykład DOL-system \relax }{figure.caption.4}{}}
\newlabel{fig:anabeaEQ}{{2.1}{8}{DOL-system}{equation.2.2.1}{}}
\@writefile{equ}{\contentsline {myequations}{\numberline {2.1}Regu\IeC {\l }y produkcji dla \textit  {Anabaena catenula}}{8}{equation.2.2.1}}
\@writefile{lof}{\contentsline {figure}{\numberline {2.5}{\ignorespaces Regu\IeC {\l }y \textit  {Anabaena catenula} \relax }}{8}{figure.caption.5}}
\newlabel{fig:anabea}{{2.5}{8}{Reguły \textit {Anabaena catenula} \relax }{figure.caption.5}{}}
\newlabel{DOL:sub1}{{2.6a}{9}{n=3,$\alpha $=72$\degree $\\ F+F+F+F+F\\ F$\longrightarrow $FF+F+F+F+F+FF\\ Occult.\relax }{figure.caption.6}{}}
\newlabel{sub@DOL:sub1}{{a}{9}{n=3,$\alpha $=72$\degree $\\ F+F+F+F+F\\ F$\longrightarrow $FF+F+F+F+F+FF\\ Occult.\relax }{figure.caption.6}{}}
\newlabel{DOL:sub2}{{2.6b}{9}{n=4,$\alpha $=60$\degree $\\ F\\ F$\longrightarrow $F-X--X+F++FF+X-,\\ X$\longrightarrow $+F-XX--X-F++F+X,\\ Hexagonal Gosper curve.\relax }{figure.caption.6}{}}
\newlabel{sub@DOL:sub2}{{b}{9}{n=4,$\alpha $=60$\degree $\\ F\\ F$\longrightarrow $F-X--X+F++FF+X-,\\ X$\longrightarrow $+F-XX--X-F++F+X,\\ Hexagonal Gosper curve.\relax }{figure.caption.6}{}}
\@writefile{lof}{\contentsline {figure}{\numberline {2.6}{\ignorespaces Przyk\IeC {\l }ady DOL-system. Obrazy w\IeC {\l }asne.\relax }}{9}{figure.caption.6}}
\newlabel{fig:test}{{2.6}{9}{Przykłady DOL-system. Obrazy własne.\relax }{figure.caption.6}{}}
\@writefile{toc}{\contentsline {subsection}{\numberline {2.2.2}Parametryczny L-system}{9}{subsection.2.2.2}}
\newlabel{fig:przykladParam}{{2.2}{10}{Parametryczny L-system}{equation.2.2.2}{}}
\@writefile{equ}{\contentsline {myequations}{\numberline {2.2}Przyk\IeC {\l }ad parametrycznego L-Systemu}{10}{equation.2.2.2}}
\citation{prusinABOP}
\citation{prusinABOP}
\@writefile{lof}{\contentsline {figure}{\numberline {2.7}{\ignorespaces Przyk\IeC {\l }ad systemu parametrycznego. \relax }}{11}{figure.caption.7}}
\newlabel{parametryczny.obrazek}{{2.7}{11}{Przykład systemu parametrycznego. \relax }{figure.caption.7}{}}
\@writefile{toc}{\contentsline {subsection}{\numberline {2.2.3}Nawiasowy L-system}{11}{subsection.2.2.3}}
\@writefile{lof}{\contentsline {figure}{\numberline {2.8}{\ignorespaces Przyk\IeC {\l }ad Systemu nawiasowego\cite  {prusinABOP} \relax }}{12}{figure.caption.8}}
\newlabel{nawiasy.obrazek}{{2.8}{12}{Przykład Systemu nawiasowego\cite {prusinABOP} \relax }{figure.caption.8}{}}
\@writefile{toc}{\contentsline {section}{\numberline {2.3}Geometryczna interpretacja s\IeC {\l }\IeC {\'o}w przy pomocy grafiki \IeC {\.z}\IeC {\'o}\IeC {\l }wiowej}{12}{section.2.3}}
\@writefile{toc}{\contentsline {subsection}{\numberline {2.3.1}Przestrze\IeC {\'n} 2D}{12}{subsection.2.3.1}}
\citation{prusinABOP}
\citation{prusinABOP}
\newlabel{fig:sub1}{{2.9a}{13}{Żółwiowa interpretacja symboli:\\F, +, - \relax }{figure.caption.9}{}}
\newlabel{sub@fig:sub1}{{a}{13}{Żółwiowa interpretacja symboli:\\F, +, - \relax }{figure.caption.9}{}}
\newlabel{fig:sub2}{{2.9b}{13}{Żółwiowa interpretacja słowa. Kąt 90$\degree $\relax }{figure.caption.9}{}}
\newlabel{sub@fig:sub2}{{b}{13}{Żółwiowa interpretacja słowa. Kąt 90$\degree $\relax }{figure.caption.9}{}}
\@writefile{lof}{\contentsline {figure}{\numberline {2.9}{\ignorespaces Przyk\IeC {\l }ady interpretacji s\IeC {\l }\IeC {\'o}w w 2d \cite  {prusinABOP}\relax }}{13}{figure.caption.9}}
\newlabel{fig:test}{{2.9}{13}{Przykłady interpretacji słów w 2d \cite {prusinABOP}\relax }{figure.caption.9}{}}
\@writefile{toc}{\contentsline {subsection}{\numberline {2.3.2}Przestrze\IeC {\'n} 3D}{13}{subsection.2.3.2}}
\@writefile{equ}{\contentsline {myequations}{\numberline {2.3}R\IeC {\'o}wnanie spe\IeC {\l }niaj\IeC {\k a}ce w przestrzeni 3D}{13}{equation.2.3.3}}
\citation{splajn}
\@writefile{equ}{\contentsline {myequations}{\numberline {2.4}Rotacja w przestrzeni 3D}{14}{equation.2.3.4}}
\@writefile{equ}{\contentsline {myequations}{\numberline {2.5}Macierze rotacji 3D}{14}{equation.2.3.5}}
\@writefile{toc}{\contentsline {section}{\numberline {2.4}Krzywe B-sklejane}{14}{section.2.4}}
\@writefile{equ}{\contentsline {myequations}{\numberline {2.6}Definicja pod przedzia\IeC {\l }u B-sklejanej}{15}{equation.2.4.6}}
\@writefile{equ}{\contentsline {myequations}{\numberline {2.7}Definicja krzywej B-Sklejanej \textit  {n} stopnia}{15}{equation.2.4.7}}
\@writefile{lof}{\contentsline {figure}{\numberline {2.10}{\ignorespaces Przyk\IeC {\l }ad Krzywej Beziera. Zdj\IeC {\k e}cie w\IeC {\l }asne. \relax }}{15}{figure.caption.10}}
\newlabel{bezier.obrazek}{{2.10}{15}{Przykład Krzywej Beziera. Zdjęcie własne. \relax }{figure.caption.10}{}}
\citation{prusinABOP}
\citation{wlosy}
\citation{wlosy}
\citation{wlosy}
\@writefile{toc}{\contentsline {chapter}{\numberline {3}Przegl\IeC {\k a}d istniej\IeC {\k a}cej literatury i rozwi\IeC {\k a}za\IeC {\'n}}{16}{chapter.3}}
\@writefile{lof}{\addvspace {10\p@ }}
\@writefile{lot}{\addvspace {10\p@ }}
\@writefile{toc}{\contentsline {section}{\numberline {3.1}Wst\IeC {\k e}p}{16}{section.3.1}}
\@writefile{lof}{\contentsline {figure}{\numberline {3.1}{\ignorespaces Ro\IeC {\'s}lina pokryta w\IeC {\l }oskami \cite  {wlosy}\relax }}{16}{figure.caption.11}}
\newlabel{wloski.obrazek}{{3.1}{16}{Roślina pokryta włoskami \cite {wlosy}\relax }{figure.caption.11}{}}
\citation{speedTreeZrodlo}
\citation{speedTreeZrodlo}
\@writefile{toc}{\contentsline {section}{\numberline {3.2}Programy generuj\IeC {\k a}ce ro\IeC {\'s}linno\IeC {\'s}\IeC {\'c}}{17}{section.3.2}}
\@writefile{toc}{\contentsline {subsection}{\numberline {3.2.1}SpeedTree}{17}{subsection.3.2.1}}
\@writefile{lof}{\contentsline {figure}{\numberline {3.2}{\ignorespaces Interfejs programu SpeedTree oraz przyk\IeC {\l }adow drzewo. \cite  {speedTreeZrodlo}\relax }}{17}{figure.caption.12}}
\newlabel{speedTree.obrazek}{{3.2}{17}{Interfejs programu SpeedTree oraz przykładow drzewo. \cite {speedTreeZrodlo}\relax }{figure.caption.12}{}}
\citation{houdiniZrodlo}
\citation{houdiniZrodlo}
\citation{sca}
\citation{treeSketch}
\citation{treeSketch}
\@writefile{toc}{\contentsline {subsection}{\numberline {3.2.2}Houdini}{18}{subsection.3.2.2}}
\@writefile{lof}{\contentsline {figure}{\numberline {3.3}{\ignorespaces Wygenerowany las w programie Houdini.\cite  {houdiniZrodlo}\relax }}{18}{figure.caption.13}}
\newlabel{houdini.obrazek}{{3.3}{18}{Wygenerowany las w programie Houdini.\cite {houdiniZrodlo}\relax }{figure.caption.13}{}}
\@writefile{toc}{\contentsline {section}{\numberline {3.3}Algorytm SpaceColonization}{18}{section.3.3}}
\citation{sca}
\citation{sca}
\@writefile{lof}{\contentsline {figure}{\numberline {3.4}{\ignorespaces Przyk\IeC {\l }ad wp\IeC {\l }ywu modelu na wynik algorytmu \cite  {treeSketch}.\relax }}{19}{figure.caption.14}}
\newlabel{sca.model}{{3.4}{19}{Przykład wpływu modelu na wynik algorytmu \cite {treeSketch}.\relax }{figure.caption.14}{}}
\citation{Sub}
\citation{VertexVertex}
\@writefile{lof}{\contentsline {figure}{\numberline {3.5}{\ignorespaces SpaceColonization Algorithm\cite  {sca} \relax }}{20}{figure.caption.15}}
\newlabel{sca.obrazek}{{3.5}{20}{SpaceColonization Algorithm\cite {sca} \relax }{figure.caption.15}{}}
\@writefile{toc}{\contentsline {section}{\numberline {3.4}Prace wykorzystuj\IeC {\k a}ce krzywe Beziera}{20}{section.3.4}}
\@writefile{toc}{\contentsline {chapter}{\numberline {4}Praca praktyczna}{21}{chapter.4}}
\@writefile{lof}{\addvspace {10\p@ }}
\@writefile{lot}{\addvspace {10\p@ }}
\@writefile{toc}{\contentsline {section}{\numberline {4.1}Interfejs u\IeC {\.z}ytkownika}{21}{section.4.1}}
\newlabel{edytor}{{4.1}{21}{Kod CustomEdytor dla Interpretera}{lstlisting.4.1}{}}
\@writefile{lol}{\contentsline {lstlisting}{\numberline {4.1}Kod CustomEdytor dla Interpretera}{21}{lstlisting.4.1}}
\@writefile{lof}{\contentsline {figure}{\numberline {4.1}{\ignorespaces Wynik powy\IeC {\.z}szego kodu. \IeC {\'Z}r\IeC {\'o}d\IeC {\l }o w\IeC {\l }asne. \relax }}{22}{figure.caption.16}}
\newlabel{unity.inspektor}{{4.1}{22}{Wynik powyższego kodu. Źródło własne. \relax }{figure.caption.16}{}}
\newlabel{OnSceneGUI}{{4.2}{23}{Kod powodujący zmiany na scenie}{lstlisting.4.2}{}}
\@writefile{lol}{\contentsline {lstlisting}{\numberline {4.2}Kod powoduj\IeC {\k a}cy zmiany na scenie.}{23}{lstlisting.4.2}}
\newlabel{zmiany}{{4.3}{23}{Tworzenie uchwytów na scenie}{lstlisting.4.3}{}}
\@writefile{lol}{\contentsline {lstlisting}{\numberline {4.3}Tworzenie uchwyt\IeC {\'o}w na scenie.}{23}{lstlisting.4.3}}
\newlabel{execute}{{4.4}{23}{Tworzenie metod wykonywalnych w trybie edytora}{lstlisting.4.4}{}}
\@writefile{lol}{\contentsline {lstlisting}{\numberline {4.4}Tworzenie metod wykonywalnych w trybie edytora.}{23}{lstlisting.4.4}}
\citation{stringBuilder}
\@writefile{lof}{\contentsline {figure}{\numberline {4.2}{\ignorespaces Przycisk \textit  {SetMaterial}. \IeC {\'Z}r\IeC {\'o}d\IeC {\l }o w\IeC {\l }asne. \relax }}{24}{figure.caption.17}}
\newlabel{unity.treeGUI}{{4.2}{24}{Przycisk \textit {SetMaterial}. Źródło własne. \relax }{figure.caption.17}{}}
\@writefile{toc}{\contentsline {section}{\numberline {4.2}Implementacja L-systemu}{24}{section.4.2}}
\@writefile{equ}{\contentsline {myequations}{\numberline {4.1}Regu\IeC {\l }\IeC {\k a} do zamiany }{25}{equation.4.2.1}}
\@writefile{equ}{\contentsline {myequations}{\numberline {4.1}Regu\IeC {\l }a po zamianie}{26}{equation.4.2.1}}
\@writefile{equ}{\contentsline {myequations}{\numberline {4.2}Przyk\IeC {\l }ad funkcji L-Systemu}{26}{equation.4.2.2}}
\newlabel{execute}{{4.5}{27}{Funkcja pomocnicza do obliczania wartosci funkcji}{lstlisting.4.5}{}}
\@writefile{lol}{\contentsline {lstlisting}{\numberline {4.5}Funkcja pomocnicza do obliczania wartosci funkcji.}{27}{lstlisting.4.5}}
\newlabel{unity.drawDirection}{{4.3a}{28}{Wizualizacja kierunku(kolor zielony), normalnej oraz binormalnej(żółty) krzywej. Źródło własne. \relax }{figure.caption.18}{}}
\newlabel{sub@unity.drawDirection}{{a}{28}{Wizualizacja kierunku(kolor zielony), normalnej oraz binormalnej(żółty) krzywej. Źródło własne. \relax }{figure.caption.18}{}}
\newlabel{unity.krzyweDrzewo}{{4.3b}{28}{Szkielet drzewa. Źródło własne. \relax }{figure.caption.18}{}}
\newlabel{sub@unity.krzyweDrzewo}{{b}{28}{Szkielet drzewa. Źródło własne. \relax }{figure.caption.18}{}}
\newlabel{unity.krzyweDrzewoMod}{{4.3c}{28}{Szkielet drzewa po modyfikacji. Źródło własne. \relax }{figure.caption.18}{}}
\newlabel{sub@unity.krzyweDrzewoMod}{{c}{28}{Szkielet drzewa po modyfikacji. Źródło własne. \relax }{figure.caption.18}{}}
\newlabel{unity.krzyweDrzewoSiatka}{{4.3d}{28}{Siatka na szkielecie po modyfikacji. Źródło własne. \relax }{figure.caption.18}{}}
\newlabel{sub@unity.krzyweDrzewoSiatka}{{d}{28}{Siatka na szkielecie po modyfikacji. Źródło własne. \relax }{figure.caption.18}{}}
\@writefile{lof}{\contentsline {figure}{\numberline {4.3}{\ignorespaces Przedstawienie tworzenia szkieletu drzewa, jego w\IeC {\l }asno\IeC {\'s}ci oraz siatki stworzonej na podstawie szkieletu.\relax }}{28}{figure.caption.18}}
\newlabel{unity.direction}{{4.3}{28}{Przedstawienie tworzenia szkieletu drzewa, jego własności oraz siatki stworzonej na podstawie szkieletu.\relax }{figure.caption.18}{}}
\citation{bezUnity}
\citation{youtube}
\newlabel{direction}{{4.6}{29}{Funkcje odliczające własności krzywej}{lstlisting.4.6}{}}
\@writefile{lol}{\contentsline {lstlisting}{\numberline {4.6}Funkcje odliczaj\IeC {\k a}ce w\IeC {\l }asno\IeC {\'s}ci krzywej.}{29}{lstlisting.4.6}}
\citation{MBN}
\citation{unityMesh}
\newlabel{buildMesh}{{4.7}{30}{Funkcja tworzaca cylinder w okół punktu krzywej}{lstlisting.4.7}{}}
\@writefile{lol}{\contentsline {lstlisting}{\numberline {4.7}Funkcja tworzaca cylinder w ok\IeC {\'o}\IeC {\l } punktu krzywej.}{30}{lstlisting.4.7}}
\citation{prusinABOP}
\@writefile{toc}{\contentsline {section}{\numberline {4.3}Przyk\IeC {\l }ady}{32}{section.4.3}}
\newlabel{przyklad1.siatka}{{4.4a}{34}{Siatka bez modyfikacji.\\Źródło własne. \relax }{figure.caption.22}{}}
\newlabel{sub@przyklad1.siatka}{{a}{34}{Siatka bez modyfikacji.\\Źródło własne. \relax }{figure.caption.22}{}}
\newlabel{przyklad1.siatkaMOD}{{4.4b}{34}{Siatka po modyfikacji.\\Źródło własne. \relax }{figure.caption.22}{}}
\newlabel{sub@przyklad1.siatkaMOD}{{b}{34}{Siatka po modyfikacji.\\Źródło własne. \relax }{figure.caption.22}{}}
\@writefile{lof}{\contentsline {figure}{\numberline {4.4}{\ignorespaces Por\IeC {\'o}wnanie siatek przyk\IeC {\l }adu 1.\relax }}{34}{figure.caption.22}}
\newlabel{przyklad1}{{4.4}{34}{Porównanie siatek przykładu 1.\relax }{figure.caption.22}{}}
\newlabel{przyklad2.siatka}{{4.5a}{35}{Siatka bez modyfikacji.\\Źródło własne. \relax }{figure.caption.23}{}}
\newlabel{sub@przyklad2.siatka}{{a}{35}{Siatka bez modyfikacji.\\Źródło własne. \relax }{figure.caption.23}{}}
\newlabel{przyklad2.siatkaMOD}{{4.5b}{35}{Siatka po modyfikacji.\\Źródło własne. \relax }{figure.caption.23}{}}
\newlabel{sub@przyklad2.siatkaMOD}{{b}{35}{Siatka po modyfikacji.\\Źródło własne. \relax }{figure.caption.23}{}}
\@writefile{lof}{\contentsline {figure}{\numberline {4.5}{\ignorespaces Por\IeC {\'o}wnanie siatek przyk\IeC {\l }adu 2.\relax }}{35}{figure.caption.23}}
\newlabel{przyklad2}{{4.5}{35}{Porównanie siatek przykładu 2.\relax }{figure.caption.23}{}}
\newlabel{przyklad3.siatka}{{4.6a}{36}{Siatka bez modyfikacji.\\Źródło własne. \relax }{figure.caption.24}{}}
\newlabel{sub@przyklad3.siatka}{{a}{36}{Siatka bez modyfikacji.\\Źródło własne. \relax }{figure.caption.24}{}}
\newlabel{przyklad3.siatkaMOD}{{4.6b}{36}{Siatka po modyfikacji.\\Źródło własne. \relax }{figure.caption.24}{}}
\newlabel{sub@przyklad3.siatkaMOD}{{b}{36}{Siatka po modyfikacji.\\Źródło własne. \relax }{figure.caption.24}{}}
\@writefile{lof}{\contentsline {figure}{\numberline {4.6}{\ignorespaces Por\IeC {\'o}wnanie siatek przyk\IeC {\l }adu 3.\relax }}{36}{figure.caption.24}}
\newlabel{przyklad3}{{4.6}{36}{Porównanie siatek przykładu 3.\relax }{figure.caption.24}{}}
\@writefile{toc}{\contentsline {section}{\numberline {4.4}Podsumowanie oraz wnioski}{37}{section.4.4}}
\@writefile{toc}{\contentsline {section}{\numberline {4.5}Dalszy rozw\IeC {\'o}j pracy}{37}{section.4.5}}
\@writefile{toc}{\contentsline {chapter}{Bibliografia}{38}{section.4.5}}
\bibcite{prusinABOP}{1}
\bibcite{wlosy}{2}
\bibcite{sca}{3}
\bibcite{Sub}{4}
\bibcite{VertexVertex}{5}
\bibcite{houdiniZrodlo}{6}
\bibcite{speedTreeZrodlo}{7}
\bibcite{unity}{8}
\bibcite{mono}{9}
\bibcite{splajn}{10}
\bibcite{treeSketch}{11}
\bibcite{slon}{12}
\bibcite{konw}{13}
\bibcite{stringBuilder}{14}
\bibcite{dict}{15}
\bibcite{bezUnity}{16}
\bibcite{youtube}{17}
\bibcite{unityMesh}{18}
\bibcite{MBN}{19}
\citation{prusinABOP}
\citation{prusinABOP}
\citation{wlosy}
\citation{speedTreeZrodlo}
\citation{houdiniZrodlo}
\citation{treeSketch}
\citation{sca}
\@writefile{toc}{\contentsline {chapter}{Spis rysunk\IeC {\'o}w}{40}{chapter*.25}}
\@writefile{toc}{\contentsline {chapter}{Spis kod\IeC {\'o}w programu}{41}{chapter*.25}}
\@writefile{toc}{\contentsline {chapter}{Lista r\IeC {\'o}wna\IeC {\'n}}{42}{chapter*.26}}
